<?xml version="1.0" encoding="utf-8"?>
<!-- Generator: Adobe Illustrator 24.1.0, SVG Export Plug-In . SVG Version: 6.00 Build 0)  -->
<svg version="1.1" id="Слой_1" xmlns="http://www.w3.org/2000/svg" xmlns:xlink="http://www.w3.org/1999/xlink" x="0px" y="0px"
	 viewBox="0 0 792.6 316.6" style="fill: #fff" xml:space="preserve">
<g>
	<rect x="542.5" y="90.3" width="227.6" height="40.5"/>
	<polygon points="583.9,158.8 583.9,149.1 542.5,149.1 542.5,158.8 542.5,199.3 583.9,199.3 770.1,199.3 770.1,158.8 	"/>
	<polygon points="770.1,21 583.9,21 542.5,21 542.5,61.5 542.5,71.2 583.9,71.2 583.9,61.5 770.1,61.5 	"/>
	<rect x="22.5" y="90.3" width="227.6" height="40.5"/>
	<polygon points="63.9,158.8 63.9,149.1 22.5,149.1 22.5,158.8 22.5,199.3 63.9,199.3 250.1,199.3 250.1,158.8 	"/>
	<polygon points="250.1,21 63.9,21 22.5,21 22.5,61.5 22.5,71.2 63.9,71.2 63.9,61.5 250.1,61.5 	"/>
	<polygon points="517.4,20.9 474.7,21 395.6,159.1 316.5,21 273.9,20.9 395.6,233.7 	"/>
	<g>
		<path d="M185.6,288.1c0,2.3-1.2,3.5-3.6,3.5h-2.4l-0.5,3.3c0.4,0.2,0.9,0.3,1.4,0.4c0.6,0.1,1.1,0.2,1.8,0.2
			c0.6,0,1.1,0.1,1.6,0.1c2.1,0,3.7-0.6,4.9-1.8c1.2-1.2,1.7-3,1.7-5.4V262h-4.8V288.1z"/>
		<path d="M273.8,262.4c-0.3-0.2-0.7-0.4-1.1-0.4h-4.9c-0.4,0-0.8,0.1-1.1,0.4c-0.3,0.2-0.5,0.6-0.7,0.9l-10.5,31.8h4.9l3.1-10.1
			h13.2l3.1,10.1h5l-10.5-31.8C274.4,262.9,274.1,262.6,273.8,262.4z M264.9,281.1l3.9-12.6c0.2-0.5,0.3-1,0.4-1.4
			c0.1-0.5,0.3-0.9,0.4-1.3h1.3c0.1,0.4,0.3,0.9,0.4,1.3c0.1,0.5,0.3,1,0.4,1.4l3.9,12.6H264.9z"/>
		<path d="M370,282.2c-0.5-0.7-1-1.2-1.5-1.6c-0.5-0.4-1.1-0.6-1.6-0.8v-0.2c1.5-0.2,2.7-0.6,3.6-1.3c0.9-0.7,1.5-1.6,1.9-2.8
			c0.4-1.2,0.6-2.7,0.6-4.4c0-2.5-0.4-4.4-1.1-5.8c-0.7-1.4-1.9-2.4-3.5-2.9c-1.6-0.6-3.7-0.8-6.4-0.8c-1.8,0-3.3,0-4.6,0
			c-1.3,0-2.5,0.1-3.6,0.1c-1.1,0.1-2.2,0.2-3.5,0.3v33.1h4.8v-13.7c0.5,0,1.1,0,1.7,0c1.4,0,3.2,0,5.2,0c1.1,0,2,0.3,2.6,0.8
			c0.7,0.5,1.2,1.4,1.6,2.6l2.9,10.3h5.1l-3.1-10.4C370.9,283.7,370.5,282.9,370,282.2z M365.6,276.9c-0.9,0.3-2.1,0.5-3.7,0.6h-6.8
			v-11.9c1.9,0,4.2,0,6.8,0c1.6,0,2.8,0.2,3.7,0.5c0.9,0.3,1.5,0.9,1.9,1.8c0.4,0.8,0.6,2.1,0.6,3.6c0,1.6-0.2,2.8-0.6,3.6
			C367.1,276,366.5,276.6,365.6,276.9z"/>
		<path d="M453.3,287.8c-0.2,0.6-0.4,1.2-0.5,1.8c-0.2,0.6-0.3,1.2-0.4,1.8h-1.3c-0.1-0.6-0.3-1.2-0.4-1.8c-0.2-0.6-0.3-1.2-0.5-1.8
			l-7.5-25.8h-5l9.8,31.8c0.1,0.4,0.4,0.7,0.7,0.9c0.3,0.3,0.7,0.4,1.2,0.4h4.8c0.4,0,0.8-0.1,1.1-0.4c0.3-0.3,0.5-0.6,0.7-0.9
			l9.9-31.8h-5L453.3,287.8z"/>
		<rect x="531.5" y="262" width="4.8" height="33.1"/>
		<path d="M624.7,280.5c-1-1.5-2.7-2.6-5.3-3.2l-6.7-1.8c-1.4-0.4-2.5-0.9-3.1-1.6c-0.6-0.7-1-1.9-1-3.6c0-1.1,0.1-2,0.4-2.6
			c0.2-0.6,0.6-1.1,1.1-1.4c0.5-0.3,1.2-0.5,2-0.5c0.8-0.1,1.8-0.1,2.9-0.1c1.6,0,3.3,0,5,0c1.7,0,3.3,0.1,4.6,0.1l0.3-3.4
			c-1.7-0.4-3.4-0.6-5.1-0.8s-3.4-0.2-5-0.2c-1.9,0-3.6,0.1-4.9,0.3s-2.5,0.6-3.4,1.2s-1.6,1.5-2,2.7c-0.4,1.2-0.6,2.7-0.6,4.7
			c0,2.5,0.5,4.5,1.5,6c1,1.5,2.7,2.6,5.1,3.3l6.9,1.9c0.9,0.2,1.7,0.5,2.3,0.8s1,0.8,1.3,1.5s0.4,1.6,0.4,2.8
			c0,1.4-0.2,2.4-0.6,3.1c-0.4,0.7-1,1.2-2,1.4c-0.9,0.2-2.2,0.4-3.8,0.4c-0.9,0-1.7,0-2.6,0s-1.9,0-3.1-0.1c-1.2,0-2.7-0.1-4.6-0.2
			l-0.3,3.5c2.3,0.4,4.4,0.7,6.2,0.8c1.8,0.1,3.2,0.1,4.3,0.1c2,0,3.7-0.1,5.1-0.4c1.4-0.3,2.6-0.7,3.5-1.3c0.9-0.6,1.6-1.6,2-2.7
			s0.6-2.7,0.6-4.7C626.1,284,625.6,282,624.7,280.5z"/>
	</g>
</g>
</svg>
